module gitlab.com/factorio-item-browser/factorio-mod-portal-client.git

go 1.21

require (
	github.com/stretchr/testify v1.8.4
	gitlab.com/blue-psyduck/soushinki.git v1.1.0
)

require (
	github.com/davecgh/go-spew v1.1.1 // indirect
	github.com/pmezard/go-difflib v1.0.0 // indirect
	github.com/stretchr/objx v0.5.0 // indirect
	gopkg.in/yaml.v3 v3.0.1 // indirect
)
